ERROR - 2021-12-14 12:20:51 --> Unknown column 'updated_at' in 'field list'
CRITICAL - 2021-12-14 12:20:51 --> Unknown column 'updated_at' in 'field list'
#0 /home/jose/examendic/frameworks/jose/system/Database/MySQLi/Connection.php(292): mysqli->query()
#1 /home/jose/examendic/frameworks/jose/system/Database/BaseConnection.php(670): CodeIgniter\Database\MySQLi\Connection->execute()
#2 /home/jose/examendic/frameworks/jose/system/Database/BaseConnection.php(598): CodeIgniter\Database\BaseConnection->simpleQuery()
#3 /home/jose/examendic/frameworks/jose/system/Database/BaseBuilder.php(1901): CodeIgniter\Database\BaseConnection->query()
#4 /home/jose/examendic/frameworks/jose/system/Model.php(356): CodeIgniter\Database\BaseBuilder->update()
#5 /home/jose/examendic/frameworks/jose/system/BaseModel.php(963): CodeIgniter\Model->doDelete()
#6 /home/jose/examendic/frameworks/jose/app/Controllers/PauController.php(32): CodeIgniter\BaseModel->delete()
#7 /home/jose/examendic/frameworks/jose/system/CodeIgniter.php(824): App\Controllers\PauController->borrar()
#8 /home/jose/examendic/frameworks/jose/system/CodeIgniter.php(410): CodeIgniter\CodeIgniter->runController()
#9 /home/jose/examendic/frameworks/jose/system/CodeIgniter.php(318): CodeIgniter\CodeIgniter->handleRequest()
#10 /home/jose/examendic/frameworks/jose/public/index.php(37): CodeIgniter\CodeIgniter->run()
#11 {main}
CRITICAL - 2021-12-14 13:01:48 --> required  no es una regla de validación válida.
#0 /home/jose/examendic/frameworks/jose/system/Validation/Validation.php(285): CodeIgniter\Validation\Exceptions\ValidationException::forRuleNotFound()
#1 /home/jose/examendic/frameworks/jose/system/Validation/Validation.php(151): CodeIgniter\Validation\Validation->processRules()
#2 /home/jose/examendic/frameworks/jose/system/Controller.php(160): CodeIgniter\Validation\Validation->run()
#3 /home/jose/examendic/frameworks/jose/app/Controllers/PauController.php(42): CodeIgniter\Controller->validate()
#4 /home/jose/examendic/frameworks/jose/system/CodeIgniter.php(824): App\Controllers\PauController->afegir()
#5 /home/jose/examendic/frameworks/jose/system/CodeIgniter.php(410): CodeIgniter\CodeIgniter->runController()
#6 /home/jose/examendic/frameworks/jose/system/CodeIgniter.php(318): CodeIgniter\CodeIgniter->handleRequest()
#7 /home/jose/examendic/frameworks/jose/public/index.php(37): CodeIgniter\CodeIgniter->run()
#8 {main}
CRITICAL - 2021-12-14 13:03:44 --> requires no es una regla de validación válida.
#0 /home/jose/examendic/frameworks/jose/system/Validation/Validation.php(285): CodeIgniter\Validation\Exceptions\ValidationException::forRuleNotFound()
#1 /home/jose/examendic/frameworks/jose/system/Validation/Validation.php(151): CodeIgniter\Validation\Validation->processRules()
#2 /home/jose/examendic/frameworks/jose/system/Controller.php(160): CodeIgniter\Validation\Validation->run()
#3 /home/jose/examendic/frameworks/jose/app/Controllers/PauController.php(42): CodeIgniter\Controller->validate()
#4 /home/jose/examendic/frameworks/jose/system/CodeIgniter.php(824): App\Controllers\PauController->afegir()
#5 /home/jose/examendic/frameworks/jose/system/CodeIgniter.php(410): CodeIgniter\CodeIgniter->runController()
#6 /home/jose/examendic/frameworks/jose/system/CodeIgniter.php(318): CodeIgniter\CodeIgniter->handleRequest()
#7 /home/jose/examendic/frameworks/jose/public/index.php(37): CodeIgniter\CodeIgniter->run()
#8 {main}
CRITICAL - 2021-12-14 13:04:10 --> requires no es una regla de validación válida.
#0 /home/jose/examendic/frameworks/jose/system/Validation/Validation.php(285): CodeIgniter\Validation\Exceptions\ValidationException::forRuleNotFound()
#1 /home/jose/examendic/frameworks/jose/system/Validation/Validation.php(151): CodeIgniter\Validation\Validation->processRules()
#2 /home/jose/examendic/frameworks/jose/system/Controller.php(160): CodeIgniter\Validation\Validation->run()
#3 /home/jose/examendic/frameworks/jose/app/Controllers/PauController.php(43): CodeIgniter\Controller->validate()
#4 /home/jose/examendic/frameworks/jose/system/CodeIgniter.php(824): App\Controllers\PauController->afegir()
#5 /home/jose/examendic/frameworks/jose/system/CodeIgniter.php(410): CodeIgniter\CodeIgniter->runController()
#6 /home/jose/examendic/frameworks/jose/system/CodeIgniter.php(318): CodeIgniter\CodeIgniter->handleRequest()
#7 /home/jose/examendic/frameworks/jose/public/index.php(37): CodeIgniter\CodeIgniter->run()
#8 {main}
CRITICAL - 2021-12-14 13:04:36 --> is_unique(pau.nif) no es una regla de validación válida.
#0 /home/jose/examendic/frameworks/jose/system/Validation/Validation.php(285): CodeIgniter\Validation\Exceptions\ValidationException::forRuleNotFound()
#1 /home/jose/examendic/frameworks/jose/system/Validation/Validation.php(151): CodeIgniter\Validation\Validation->processRules()
#2 /home/jose/examendic/frameworks/jose/system/Controller.php(160): CodeIgniter\Validation\Validation->run()
#3 /home/jose/examendic/frameworks/jose/app/Controllers/PauController.php(43): CodeIgniter\Controller->validate()
#4 /home/jose/examendic/frameworks/jose/system/CodeIgniter.php(824): App\Controllers\PauController->afegir()
#5 /home/jose/examendic/frameworks/jose/system/CodeIgniter.php(410): CodeIgniter\CodeIgniter->runController()
#6 /home/jose/examendic/frameworks/jose/system/CodeIgniter.php(318): CodeIgniter\CodeIgniter->handleRequest()
#7 /home/jose/examendic/frameworks/jose/public/index.php(37): CodeIgniter\CodeIgniter->run()
#8 {main}
CRITICAL - 2021-12-14 13:08:02 --> Cannot use object of type CodeIgniter\Validation\Validation as array
#0 /home/jose/examendic/frameworks/jose/system/View/View.php(214): include()
#1 /home/jose/examendic/frameworks/jose/system/View/View.php(217): CodeIgniter\View\View->CodeIgniter\View\{closure}()
#2 /home/jose/examendic/frameworks/jose/system/Common.php(1097): CodeIgniter\View\View->render()
#3 /home/jose/examendic/frameworks/jose/app/Controllers/PauController.php(52): view()
#4 /home/jose/examendic/frameworks/jose/system/CodeIgniter.php(824): App\Controllers\PauController->afegir()
#5 /home/jose/examendic/frameworks/jose/system/CodeIgniter.php(410): CodeIgniter\CodeIgniter->runController()
#6 /home/jose/examendic/frameworks/jose/system/CodeIgniter.php(318): CodeIgniter\CodeIgniter->handleRequest()
#7 /home/jose/examendic/frameworks/jose/public/index.php(37): CodeIgniter\CodeIgniter->run()
#8 {main}
CRITICAL - 2021-12-14 13:08:27 --> Cannot access protected property CodeIgniter\Validation\Validation::$errors
#0 /home/jose/examendic/frameworks/jose/system/View/View.php(214): include()
#1 /home/jose/examendic/frameworks/jose/system/View/View.php(217): CodeIgniter\View\View->CodeIgniter\View\{closure}()
#2 /home/jose/examendic/frameworks/jose/system/Common.php(1097): CodeIgniter\View\View->render()
#3 /home/jose/examendic/frameworks/jose/app/Controllers/PauController.php(52): view()
#4 /home/jose/examendic/frameworks/jose/system/CodeIgniter.php(824): App\Controllers\PauController->afegir()
#5 /home/jose/examendic/frameworks/jose/system/CodeIgniter.php(410): CodeIgniter\CodeIgniter->runController()
#6 /home/jose/examendic/frameworks/jose/system/CodeIgniter.php(318): CodeIgniter\CodeIgniter->handleRequest()
#7 /home/jose/examendic/frameworks/jose/public/index.php(37): CodeIgniter\CodeIgniter->run()
#8 {main}
CRITICAL - 2021-12-14 13:11:53 --> Call to undefined method CodeIgniter\Validation\Validation::errors()
#0 /home/jose/examendic/frameworks/jose/system/View/View.php(214): include()
#1 /home/jose/examendic/frameworks/jose/system/View/View.php(217): CodeIgniter\View\View->CodeIgniter\View\{closure}()
#2 /home/jose/examendic/frameworks/jose/system/Common.php(1097): CodeIgniter\View\View->render()
#3 /home/jose/examendic/frameworks/jose/app/Controllers/PauController.php(52): view()
#4 /home/jose/examendic/frameworks/jose/system/CodeIgniter.php(824): App\Controllers\PauController->afegir()
#5 /home/jose/examendic/frameworks/jose/system/CodeIgniter.php(410): CodeIgniter\CodeIgniter->runController()
#6 /home/jose/examendic/frameworks/jose/system/CodeIgniter.php(318): CodeIgniter\CodeIgniter->handleRequest()
#7 /home/jose/examendic/frameworks/jose/public/index.php(37): CodeIgniter\CodeIgniter->run()
#8 {main}
CRITICAL - 2021-12-14 13:17:20 --> Undefined property: CodeIgniter\Validation\Validation::$getErrors
#0 /home/jose/examendic/frameworks/jose/app/Views/solicitudes/form.php(10): CodeIgniter\Debug\Exceptions->errorHandler()
#1 /home/jose/examendic/frameworks/jose/system/View/View.php(214): include('...')
#2 /home/jose/examendic/frameworks/jose/system/View/View.php(217): CodeIgniter\View\View->CodeIgniter\View\{closure}()
#3 /home/jose/examendic/frameworks/jose/system/Common.php(1097): CodeIgniter\View\View->render()
#4 /home/jose/examendic/frameworks/jose/app/Controllers/PauController.php(52): view()
#5 /home/jose/examendic/frameworks/jose/system/CodeIgniter.php(824): App\Controllers\PauController->afegir()
#6 /home/jose/examendic/frameworks/jose/system/CodeIgniter.php(410): CodeIgniter\CodeIgniter->runController()
#7 /home/jose/examendic/frameworks/jose/system/CodeIgniter.php(318): CodeIgniter\CodeIgniter->handleRequest()
#8 /home/jose/examendic/frameworks/jose/public/index.php(37): CodeIgniter\CodeIgniter->run()
#9 {main}
CRITICAL - 2021-12-14 13:51:51 --> Class "App\Controllers\CiclosModel" not found
#0 /home/jose/examendic/frameworks/jose/system/CodeIgniter.php(824): App\Controllers\PauController->afegir()
#1 /home/jose/examendic/frameworks/jose/system/CodeIgniter.php(410): CodeIgniter\CodeIgniter->runController()
#2 /home/jose/examendic/frameworks/jose/system/CodeIgniter.php(318): CodeIgniter\CodeIgniter->handleRequest()
#3 /home/jose/examendic/frameworks/jose/public/index.php(37): CodeIgniter\CodeIgniter->run()
#4 {main}
CRITICAL - 2021-12-14 13:52:44 --> Class "App\Controllers\CiclosModel" not found
#0 /home/jose/examendic/frameworks/jose/system/CodeIgniter.php(824): App\Controllers\PauController->afegir()
#1 /home/jose/examendic/frameworks/jose/system/CodeIgniter.php(410): CodeIgniter\CodeIgniter->runController()
#2 /home/jose/examendic/frameworks/jose/system/CodeIgniter.php(318): CodeIgniter\CodeIgniter->handleRequest()
#3 /home/jose/examendic/frameworks/jose/public/index.php(37): CodeIgniter\CodeIgniter->run()
#4 {main}
CRITICAL - 2021-12-14 13:53:24 --> Class "App\Controllers\CiclosModel" not found
#0 /home/jose/examendic/frameworks/jose/system/CodeIgniter.php(824): App\Controllers\PauController->afegir()
#1 /home/jose/examendic/frameworks/jose/system/CodeIgniter.php(410): CodeIgniter\CodeIgniter->runController()
#2 /home/jose/examendic/frameworks/jose/system/CodeIgniter.php(318): CodeIgniter\CodeIgniter->handleRequest()
#3 /home/jose/examendic/frameworks/jose/public/index.php(37): CodeIgniter\CodeIgniter->run()
#4 {main}
CRITICAL - 2021-12-14 13:53:53 --> Undefined variable $errors
#0 /home/jose/examendic/frameworks/jose/app/Views/solicitudes/form.php(8): CodeIgniter\Debug\Exceptions->errorHandler()
#1 /home/jose/examendic/frameworks/jose/system/View/View.php(214): include('...')
#2 /home/jose/examendic/frameworks/jose/system/View/View.php(217): CodeIgniter\View\View->CodeIgniter\View\{closure}()
#3 /home/jose/examendic/frameworks/jose/system/Common.php(1097): CodeIgniter\View\View->render()
#4 /home/jose/examendic/frameworks/jose/app/Controllers/PauController.php(58): view()
#5 /home/jose/examendic/frameworks/jose/system/CodeIgniter.php(824): App\Controllers\PauController->afegir()
#6 /home/jose/examendic/frameworks/jose/system/CodeIgniter.php(410): CodeIgniter\CodeIgniter->runController()
#7 /home/jose/examendic/frameworks/jose/system/CodeIgniter.php(318): CodeIgniter\CodeIgniter->handleRequest()
#8 /home/jose/examendic/frameworks/jose/public/index.php(37): CodeIgniter\CodeIgniter->run()
#9 {main}
CRITICAL - 2021-12-14 14:05:42 --> syntax error, unexpected token "public", expecting end of file
#0 /home/jose/examendic/frameworks/jose/app/Controllers/PauController.php(38): helper()
#1 /home/jose/examendic/frameworks/jose/system/CodeIgniter.php(824): App\Controllers\PauController->afegir()
#2 /home/jose/examendic/frameworks/jose/system/CodeIgniter.php(410): CodeIgniter\CodeIgniter->runController()
#3 /home/jose/examendic/frameworks/jose/system/CodeIgniter.php(318): CodeIgniter\CodeIgniter->handleRequest()
#4 /home/jose/examendic/frameworks/jose/public/index.php(37): CodeIgniter\CodeIgniter->run()
#5 {main}
CRITICAL - 2021-12-14 14:05:54 --> Undefined variable $errors
#0 /home/jose/examendic/frameworks/jose/app/Views/solicitudes/form.php(8): CodeIgniter\Debug\Exceptions->errorHandler()
#1 /home/jose/examendic/frameworks/jose/system/View/View.php(214): include('...')
#2 /home/jose/examendic/frameworks/jose/system/View/View.php(217): CodeIgniter\View\View->CodeIgniter\View\{closure}()
#3 /home/jose/examendic/frameworks/jose/system/Common.php(1097): CodeIgniter\View\View->render()
#4 /home/jose/examendic/frameworks/jose/app/Controllers/PauController.php(59): view()
#5 /home/jose/examendic/frameworks/jose/system/CodeIgniter.php(824): App\Controllers\PauController->afegir()
#6 /home/jose/examendic/frameworks/jose/system/CodeIgniter.php(410): CodeIgniter\CodeIgniter->runController()
#7 /home/jose/examendic/frameworks/jose/system/CodeIgniter.php(318): CodeIgniter\CodeIgniter->handleRequest()
#8 /home/jose/examendic/frameworks/jose/public/index.php(37): CodeIgniter\CodeIgniter->run()
#9 {main}
CRITICAL - 2021-12-14 14:09:53 --> Call to undefined function App\Controllers\toSelect()
#0 /home/jose/examendic/frameworks/jose/system/CodeIgniter.php(824): App\Controllers\PauController->afegir()
#1 /home/jose/examendic/frameworks/jose/system/CodeIgniter.php(410): CodeIgniter\CodeIgniter->runController()
#2 /home/jose/examendic/frameworks/jose/system/CodeIgniter.php(318): CodeIgniter\CodeIgniter->handleRequest()
#3 /home/jose/examendic/frameworks/jose/public/index.php(37): CodeIgniter\CodeIgniter->run()
#4 {main}
CRITICAL - 2021-12-14 14:10:21 --> Undefined variable $errors
#0 /home/jose/examendic/frameworks/jose/app/Views/solicitudes/form.php(8): CodeIgniter\Debug\Exceptions->errorHandler()
#1 /home/jose/examendic/frameworks/jose/system/View/View.php(214): include('...')
#2 /home/jose/examendic/frameworks/jose/system/View/View.php(217): CodeIgniter\View\View->CodeIgniter\View\{closure}()
#3 /home/jose/examendic/frameworks/jose/system/Common.php(1097): CodeIgniter\View\View->render()
#4 /home/jose/examendic/frameworks/jose/app/Controllers/PauController.php(59): view()
#5 /home/jose/examendic/frameworks/jose/system/CodeIgniter.php(824): App\Controllers\PauController->afegir()
#6 /home/jose/examendic/frameworks/jose/system/CodeIgniter.php(410): CodeIgniter\CodeIgniter->runController()
#7 /home/jose/examendic/frameworks/jose/system/CodeIgniter.php(318): CodeIgniter\CodeIgniter->handleRequest()
#8 /home/jose/examendic/frameworks/jose/public/index.php(37): CodeIgniter\CodeIgniter->run()
#9 {main}
CRITICAL - 2021-12-14 14:10:56 --> Call to undefined function form_dropbox()
#0 /home/jose/examendic/frameworks/jose/system/View/View.php(214): include()
#1 /home/jose/examendic/frameworks/jose/system/View/View.php(217): CodeIgniter\View\View->CodeIgniter\View\{closure}()
#2 /home/jose/examendic/frameworks/jose/system/Common.php(1097): CodeIgniter\View\View->render()
#3 /home/jose/examendic/frameworks/jose/app/Controllers/PauController.php(59): view()
#4 /home/jose/examendic/frameworks/jose/system/CodeIgniter.php(824): App\Controllers\PauController->afegir()
#5 /home/jose/examendic/frameworks/jose/system/CodeIgniter.php(410): CodeIgniter\CodeIgniter->runController()
#6 /home/jose/examendic/frameworks/jose/system/CodeIgniter.php(318): CodeIgniter\CodeIgniter->handleRequest()
#7 /home/jose/examendic/frameworks/jose/public/index.php(37): CodeIgniter\CodeIgniter->run()
#8 {main}
CRITICAL - 2021-12-14 14:11:37 --> numeric  no es una regla de validación válida.
#0 /home/jose/examendic/frameworks/jose/system/Validation/Validation.php(285): CodeIgniter\Validation\Exceptions\ValidationException::forRuleNotFound()
#1 /home/jose/examendic/frameworks/jose/system/Validation/Validation.php(151): CodeIgniter\Validation\Validation->processRules()
#2 /home/jose/examendic/frameworks/jose/system/Controller.php(160): CodeIgniter\Validation\Validation->run()
#3 /home/jose/examendic/frameworks/jose/app/Controllers/PauController.php(44): CodeIgniter\Controller->validate()
#4 /home/jose/examendic/frameworks/jose/system/CodeIgniter.php(824): App\Controllers\PauController->afegir()
#5 /home/jose/examendic/frameworks/jose/system/CodeIgniter.php(410): CodeIgniter\CodeIgniter->runController()
#6 /home/jose/examendic/frameworks/jose/system/CodeIgniter.php(318): CodeIgniter\CodeIgniter->handleRequest()
#7 /home/jose/examendic/frameworks/jose/public/index.php(37): CodeIgniter\CodeIgniter->run()
#8 {main}
CRITICAL - 2021-12-14 14:19:43 --> Undefined array key "email1"
#0 /home/jose/examendic/frameworks/jose/app/Controllers/PauController.php(45): CodeIgniter\Debug\Exceptions->errorHandler()
#1 /home/jose/examendic/frameworks/jose/system/CodeIgniter.php(824): App\Controllers\PauController->afegir()
#2 /home/jose/examendic/frameworks/jose/system/CodeIgniter.php(410): CodeIgniter\CodeIgniter->runController()
#3 /home/jose/examendic/frameworks/jose/system/CodeIgniter.php(318): CodeIgniter\CodeIgniter->handleRequest()
#4 /home/jose/examendic/frameworks/jose/public/index.php(37): CodeIgniter\CodeIgniter->run()
#5 {main}
CRITICAL - 2021-12-14 14:26:06 --> required  no es una regla de validación válida.
#0 /home/jose/examendic/frameworks/jose/system/Validation/Validation.php(285): CodeIgniter\Validation\Exceptions\ValidationException::forRuleNotFound()
#1 /home/jose/examendic/frameworks/jose/system/Validation/Validation.php(151): CodeIgniter\Validation\Validation->processRules()
#2 /home/jose/examendic/frameworks/jose/system/Controller.php(160): CodeIgniter\Validation\Validation->run()
#3 /home/jose/examendic/frameworks/jose/app/Controllers/PauController.php(46): CodeIgniter\Controller->validate()
#4 /home/jose/examendic/frameworks/jose/system/CodeIgniter.php(824): App\Controllers\PauController->afegir()
#5 /home/jose/examendic/frameworks/jose/system/CodeIgniter.php(410): CodeIgniter\CodeIgniter->runController()
#6 /home/jose/examendic/frameworks/jose/system/CodeIgniter.php(318): CodeIgniter\CodeIgniter->handleRequest()
#7 /home/jose/examendic/frameworks/jose/public/index.php(37): CodeIgniter\CodeIgniter->run()
#8 {main}
CRITICAL - 2021-12-14 14:26:17 --> required  no es una regla de validación válida.
#0 /home/jose/examendic/frameworks/jose/system/Validation/Validation.php(285): CodeIgniter\Validation\Exceptions\ValidationException::forRuleNotFound()
#1 /home/jose/examendic/frameworks/jose/system/Validation/Validation.php(151): CodeIgniter\Validation\Validation->processRules()
#2 /home/jose/examendic/frameworks/jose/system/Controller.php(160): CodeIgniter\Validation\Validation->run()
#3 /home/jose/examendic/frameworks/jose/app/Controllers/PauController.php(46): CodeIgniter\Controller->validate()
#4 /home/jose/examendic/frameworks/jose/system/CodeIgniter.php(824): App\Controllers\PauController->afegir()
#5 /home/jose/examendic/frameworks/jose/system/CodeIgniter.php(410): CodeIgniter\CodeIgniter->runController()
#6 /home/jose/examendic/frameworks/jose/system/CodeIgniter.php(318): CodeIgniter\CodeIgniter->handleRequest()
#7 /home/jose/examendic/frameworks/jose/public/index.php(37): CodeIgniter\CodeIgniter->run()
#8 {main}
